     1                                 %line 1+1 bnstest.asm
     2                                 [section .data]
     3                                 EXIT_SUCCESS equ 0
     4                                 SYS_EXIT equ 60
     5 00000000 6F6B                   var_x db "ok"
     6                                 var_len_x equ $-var_x
     7 00000002 616C0A                 print_a db "al", 0x0a
     8                                 print_len_a equ $-print_a
     9                                 [section .text]
    10                                 [global _start]
    11                                 _start:
    12 00000000 B804000000             mov eax, 4
    13 00000005 BB01000000             mov ebx, 1
    14 0000000A B9[00000000]           mov ecx, print_a
    15 0000000F BA03000000             mov edx, print_len_a
    16 00000014 CD80                   int 0x80
    17 00000016 48C7C03C000000         mov rax, SYS_EXIT
    18 0000001D 48C7C700000000         mov rdi, EXIT_SUCCESS
    19 00000024 0F05                   syscall
